Import and Tidy
…
soc_care11$council <- factor(soc_care11$council,
                            levels = la_levels,
                            labels = la_labels)

soc_care12$council <- factor(soc_care12$council,
                            levels = la_levels,
                            labels = la_labels)

Now I want to count each level of the factors as a sanity check. Do they look roughly like they should do? (I’ll explore in more detail in another file).

fct_count(soc_care10$council)  #Count factor levels as diagnostic check

# A tibble: 32 x 2
   f                       n
   <fct>               <int>
 1 Aberdeen City        2087
 2 Aberdeenshire        4284
 3 Angus                2843
 4 Argyll & Bute         920
 5 Clackmannanshire     2395
 6 Dumfries & Galloway  2513
 7 Dundee City          2479
 8 East Ayrshire        1904
 9 East Dunbartonshire  1452
10 East Lothian         1790
# ... with 22 more rows

fct_count(soc_care11$council)

# A tibble: 32 x 2
   f                       n
   <fct>               <int>
 1 Aberdeen City        3337
 2 Aberdeenshire        4157
 3 Angus                4571
 4 Argyll & Bute        1904
 5 Clackmannanshire     1541
 6 Dumfries & Galloway  3733
 7 Dundee City          5759
 8 East Ayrshire        4099
 9 East Dunbartonshire  2580
10 East Lothian         2752
# ... with 22 more rows

fct_count(soc_care12$council)

# A tibble: 32 x 2
   f                       n
   <fct>               <int>
 1 Aberdeen City        3352
 2 Aberdeenshire        3984
 3 Angus                4290
 4 Argyll & Bute        1942
 5 Clackmannanshire     1612
 6 Dumfries & Galloway  3785
 7 Dundee City          5791
 8 East Ayrshire        3736
 9 East Dunbartonshire  2609
10 East Lothian         1785
# ... with 22 more rows
…
