Exploratory data analysis - 2010 social care data
…
Multivariate visualisation

Age group by Local Authority

x <-
  soc_care10 %>% 
  group_by(council, gender, age_grp) %>% 
  summarise(n = n()) %>% 
  mutate(frq = n/sum(n))
x

# A tibble: 287 x 5
# Groups:   council, gender [88]
   council       gender age_grp     n    frq
   <fct>         <fct>  <fct>   <int>  <dbl>
 1 Aberdeen City Male   18-<65     87 0.140 
 2 Aberdeen City Male   65-<75    121 0.195 
 3 Aberdeen City Male   75-<85    239 0.384 
 4 Aberdeen City Male   85+       175 0.281 
 5 Aberdeen City Female 18-<65     90 0.0704
 6 Aberdeen City Female 65-<75    141 0.110 
 7 Aberdeen City Female 75-<85    506 0.396 
 8 Aberdeen City Female 85+       542 0.424 
 9 Aberdeen City <NA>   <NA>      186 1.00  
10 Aberdeenshire Male   18-<65    296 0.224 
# ... with 277 more rows
…
